{
  "_links": {
    "self": {
      "href": "https://api.data.amsterdam.nl/atlas/search/adres/?q=Groenb&page=1"
    },
    "next": {
      "href": "https://api.data.amsterdam.nl/atlas/search/adres/?q=Groenb&page=2"
    },
    "prev": {
      "href": null
    }
  },
  "count_hits": 182,
  "count": 182,
  "results": [
    {
      "_links": {
        "self": {
          "href": "https://api.data.amsterdam.nl/bag/v1.1/verblijfsobject/0363010000651444/"
        }
      },
      "type": "verblijfsobject",
      "dataset": "v11_nummeraanduiding",
      "adres": "Groenburgwal 1",
      "postcode": "1011HR",
      "straatnaam": "Groenburgwal",
      "straatnaam_no_ws": "Groenburgwal",
      "huisnummer": 1,
      "toevoeging": "1",
      "bag_huisletter": "",
      "bag_toevoeging": "",
      "woonplaats": "Amsterdam",
      "type_adres": "Hoofdadres",
      "status": "Naamgeving uitgegeven",
      "landelijk_id": "0363200000414684",
      "vbo_status": "Verblijfsobject in gebruik",
      "adresseerbaar_object_id": "0363010000651444",
      "subtype": "verblijfsobject",
      "centroid": [4.899177219662207, 52.36955836118418],
      "subtype_id": "0363010000651444",
      "_display": "Groenburgwal 1"
    },
    {
      "_links": {
        "self": {
          "href": "https://api.data.amsterdam.nl/bag/v1.1/verblijfsobject/0363010000651445/"
        }
      },
      "type": "verblijfsobject",
      "dataset": "v11_nummeraanduiding",
      "adres": "Groenburgwal 2",
      "postcode": "1011HV",
      "straatnaam": "Groenburgwal",
      "straatnaam_no_ws": "Groenburgwal",
      "huisnummer": 2,
      "toevoeging": "2",
      "bag_huisletter": "",
      "bag_toevoeging": "",
      "woonplaats": "Amsterdam",
      "type_adres": "Hoofdadres",
      "status": "Naamgeving uitgegeven",
      "landelijk_id": "0363200000113667",
      "vbo_status": "Verblijfsobject in gebruik",
      "adresseerbaar_object_id": "0363010000651445",
      "subtype": "verblijfsobject",
      "centroid": [4.898575920456677, 52.369492967233114],
      "subtype_id": "0363010000651445",
      "_display": "Groenburgwal 2"
    },
    {
      "_links": {
        "self": {
          "href": "https://api.data.amsterdam.nl/bag/v1.1/verblijfsobject/0363010000651446/"
        }
      },
      "type": "verblijfsobject",
      "dataset": "v11_nummeraanduiding",
      "adres": "Groenburgwal 2A",
      "postcode": "1011HV",
      "straatnaam": "Groenburgwal",
      "straatnaam_no_ws": "Groenburgwal",
      "huisnummer": 2,
      "toevoeging": "2 A",
      "bag_huisletter": "A",
      "bag_toevoeging": "",
      "woonplaats": "Amsterdam",
      "type_adres": "Hoofdadres",
      "status": "Naamgeving uitgegeven",
      "landelijk_id": "0363200000113668",
      "vbo_status": "Verblijfsobject in gebruik",
      "adresseerbaar_object_id": "0363010000651446",
      "subtype": "verblijfsobject",
      "centroid": [4.898532367327512, 52.36944784892873],
      "subtype_id": "0363010000651446",
      "_display": "Groenburgwal 2A"
    },
    {
      "_links": {
        "self": {
          "href": "https://api.data.amsterdam.nl/bag/v1.1/verblijfsobject/0363010000651447/"
        }
      },
      "type": "verblijfsobject",
      "dataset": "v11_nummeraanduiding",
      "adres": "Groenburgwal 3A",
      "postcode": "1011HR",
      "straatnaam": "Groenburgwal",
      "straatnaam_no_ws": "Groenburgwal",
      "huisnummer": 3,
      "toevoeging": "3 A",
      "bag_huisletter": "A",
      "bag_toevoeging": "",
      "woonplaats": "Amsterdam",
      "type_adres": "Hoofdadres",
      "status": "Naamgeving uitgegeven",
      "landelijk_id": "0363200000113669",
      "vbo_status": "Verblijfsobject in gebruik",
      "adresseerbaar_object_id": "0363010000651447",
      "subtype": "verblijfsobject",
      "centroid": [4.899133566975843, 52.36952223040417],
      "subtype_id": "0363010000651447",
      "_display": "Groenburgwal 3A"
    },
    {
      "_links": {
        "self": {
          "href": "https://api.data.amsterdam.nl/bag/v1.1/verblijfsobject/0363010000651448/"
        }
      },
      "type": "verblijfsobject",
      "dataset": "v11_nummeraanduiding",
      "adres": "Groenburgwal 3B",
      "postcode": "1011HR",
      "straatnaam": "Groenburgwal",
      "straatnaam_no_ws": "Groenburgwal",
      "huisnummer": 3,
      "toevoeging": "3 B",
      "bag_huisletter": "B",
      "bag_toevoeging": "",
      "woonplaats": "Amsterdam",
      "type_adres": "Hoofdadres",
      "status": "Naamgeving uitgegeven",
      "landelijk_id": "0363200000113670",
      "vbo_status": "Verblijfsobject in gebruik",
      "adresseerbaar_object_id": "0363010000651448",
      "subtype": "verblijfsobject",
      "centroid": [4.899133566975843, 52.36952223040417],
      "subtype_id": "0363010000651448",
      "_display": "Groenburgwal 3B"
    },
    {
      "_links": {
        "self": {
          "href": "https://api.data.amsterdam.nl/bag/v1.1/verblijfsobject/0363010000651449/"
        }
      },
      "type": "verblijfsobject",
      "dataset": "v11_nummeraanduiding",
      "adres": "Groenburgwal 3C",
      "postcode": "1011HR",
      "straatnaam": "Groenburgwal",
      "straatnaam_no_ws": "Groenburgwal",
      "huisnummer": 3,
      "toevoeging": "3 C",
      "bag_huisletter": "C",
      "bag_toevoeging": "",
      "woonplaats": "Amsterdam",
      "type_adres": "Hoofdadres",
      "status": "Naamgeving uitgegeven",
      "landelijk_id": "0363200000113671",
      "vbo_status": "Verblijfsobject in gebruik",
      "adresseerbaar_object_id": "0363010000651449",
      "subtype": "verblijfsobject",
      "centroid": [4.899133566975843, 52.36952223040417],
      "subtype_id": "0363010000651449",
      "_display": "Groenburgwal 3C"
    },
    {
      "_links": {
        "self": {
          "href": "https://api.data.amsterdam.nl/bag/v1.1/verblijfsobject/0363010000980681/"
        }
      },
      "type": "verblijfsobject",
      "dataset": "v11_nummeraanduiding",
      "adres": "Groenburgwal 4-1",
      "postcode": "1011HV",
      "straatnaam": "Groenburgwal",
      "straatnaam_no_ws": "Groenburgwal",
      "huisnummer": 4,
      "toevoeging": "4 1",
      "bag_huisletter": "",
      "bag_toevoeging": "1",
      "woonplaats": "Amsterdam",
      "type_adres": "Hoofdadres",
      "status": "Naamgeving uitgegeven",
      "landelijk_id": "0363200000468155",
      "vbo_status": "Verblijfsobject in gebruik",
      "adresseerbaar_object_id": "0363010000980681",
      "subtype": "verblijfsobject",
      "centroid": [4.898443974074299, 52.36947444720709],
      "subtype_id": "0363010000980681",
      "_display": "Groenburgwal 4-1"
    },
    {
      "_links": {
        "self": {
          "href": "https://api.data.amsterdam.nl/bag/v1.1/verblijfsobject/0363010000651451/"
        }
      },
      "type": "verblijfsobject",
      "dataset": "v11_nummeraanduiding",
      "adres": "Groenburgwal 4-2",
      "postcode": "1011HV",
      "straatnaam": "Groenburgwal",
      "straatnaam_no_ws": "Groenburgwal",
      "huisnummer": 4,
      "toevoeging": "4 2",
      "bag_huisletter": "",
      "bag_toevoeging": "2",
      "woonplaats": "Amsterdam",
      "type_adres": "Hoofdadres",
      "status": "Naamgeving uitgegeven",
      "landelijk_id": "0363200000113673",
      "vbo_status": "Verblijfsobject in gebruik",
      "adresseerbaar_object_id": "0363010000651451",
      "subtype": "verblijfsobject",
      "centroid": [4.898443974074299, 52.36947444720709],
      "subtype_id": "0363010000651451",
      "_display": "Groenburgwal 4-2"
    },
    {
      "_links": {
        "self": {
          "href": "https://api.data.amsterdam.nl/bag/v1.1/verblijfsobject/0363010000651452/"
        }
      },
      "type": "verblijfsobject",
      "dataset": "v11_nummeraanduiding",
      "adres": "Groenburgwal 4-3",
      "postcode": "1011HV",
      "straatnaam": "Groenburgwal",
      "straatnaam_no_ws": "Groenburgwal",
      "huisnummer": 4,
      "toevoeging": "4 3",
      "bag_huisletter": "",
      "bag_toevoeging": "3",
      "woonplaats": "Amsterdam",
      "type_adres": "Hoofdadres",
      "status": "Naamgeving uitgegeven",
      "landelijk_id": "0363200000113674",
      "vbo_status": "Verblijfsobject in gebruik",
      "adresseerbaar_object_id": "0363010000651452",
      "subtype": "verblijfsobject",
      "centroid": [4.898443974074299, 52.36947444720709],
      "subtype_id": "0363010000651452",
      "_display": "Groenburgwal 4-3"
    },
    {
      "_links": {
        "self": {
          "href": "https://api.data.amsterdam.nl/bag/v1.1/verblijfsobject/0363010000980680/"
        }
      },
      "type": "verblijfsobject",
      "dataset": "v11_nummeraanduiding",
      "adres": "Groenburgwal 4-H",
      "postcode": "1011HV",
      "straatnaam": "Groenburgwal",
      "straatnaam_no_ws": "Groenburgwal",
      "huisnummer": 4,
      "toevoeging": "4 H",
      "bag_huisletter": "",
      "bag_toevoeging": "H",
      "woonplaats": "Amsterdam",
      "type_adres": "Hoofdadres",
      "status": "Naamgeving uitgegeven",
      "landelijk_id": "0363200000113672",
      "vbo_status": "Verblijfsobject in gebruik",
      "adresseerbaar_object_id": "0363010000980680",
      "subtype": "verblijfsobject",
      "centroid": [4.898443974074299, 52.36947444720709],
      "subtype_id": "0363010000980680",
      "_display": "Groenburgwal 4-H"
    },
    {
      "_links": {
        "self": {
          "href": "https://api.data.amsterdam.nl/bag/v1.1/verblijfsobject/0363010000651453/"
        }
      },
      "type": "verblijfsobject",
      "dataset": "v11_nummeraanduiding",
      "adres": "Groenburgwal 5A",
      "postcode": "1011HR",
      "straatnaam": "Groenburgwal",
      "straatnaam_no_ws": "Groenburgwal",
      "huisnummer": 5,
      "toevoeging": "5 A",
      "bag_huisletter": "A",
      "bag_toevoeging": "",
      "woonplaats": "Amsterdam",
      "type_adres": "Hoofdadres",
      "status": "Naamgeving uitgegeven",
      "landelijk_id": "0363200000113675",
      "vbo_status": "Verblijfsobject in gebruik",
      "adresseerbaar_object_id": "0363010000651453",
      "subtype": "verblijfsobject",
      "centroid": [4.899090013250009, 52.36947711230448],
      "subtype_id": "0363010000651453",
      "_display": "Groenburgwal 5A"
    },
    {
      "_links": {
        "self": {
          "href": "https://api.data.amsterdam.nl/bag/v1.1/verblijfsobject/0363010000651454/"
        }
      },
      "type": "verblijfsobject",
      "dataset": "v11_nummeraanduiding",
      "adres": "Groenburgwal 5B",
      "postcode": "1011HR",
      "straatnaam": "Groenburgwal",
      "straatnaam_no_ws": "Groenburgwal",
      "huisnummer": 5,
      "toevoeging": "5 B",
      "bag_huisletter": "B",
      "bag_toevoeging": "",
      "woonplaats": "Amsterdam",
      "type_adres": "Hoofdadres",
      "status": "Naamgeving uitgegeven",
      "landelijk_id": "0363200000113676",
      "vbo_status": "Verblijfsobject in gebruik",
      "adresseerbaar_object_id": "0363010000651454",
      "subtype": "verblijfsobject",
      "centroid": [4.8990753305404775, 52.36947705177327],
      "subtype_id": "0363010000651454",
      "_display": "Groenburgwal 5B"
    },
    {
      "_links": {
        "self": {
          "href": "https://api.data.amsterdam.nl/bag/v1.1/verblijfsobject/0363010000651455/"
        }
      },
      "type": "verblijfsobject",
      "dataset": "v11_nummeraanduiding",
      "adres": "Groenburgwal 5C",
      "postcode": "1011HR",
      "straatnaam": "Groenburgwal",
      "straatnaam_no_ws": "Groenburgwal",
      "huisnummer": 5,
      "toevoeging": "5 C",
      "bag_huisletter": "C",
      "bag_toevoeging": "",
      "woonplaats": "Amsterdam",
      "type_adres": "Hoofdadres",
      "status": "Naamgeving uitgegeven",
      "landelijk_id": "0363200000113677",
      "vbo_status": "Verblijfsobject in gebruik",
      "adresseerbaar_object_id": "0363010000651455",
      "subtype": "verblijfsobject",
      "centroid": [4.899090013250009, 52.36947711230448],
      "subtype_id": "0363010000651455",
      "_display": "Groenburgwal 5C"
    },
    {
      "_links": {
        "self": {
          "href": "https://api.data.amsterdam.nl/bag/v1.1/verblijfsobject/0363010000651456/"
        }
      },
      "type": "verblijfsobject",
      "dataset": "v11_nummeraanduiding",
      "adres": "Groenburgwal 5D",
      "postcode": "1011HR",
      "straatnaam": "Groenburgwal",
      "straatnaam_no_ws": "Groenburgwal",
      "huisnummer": 5,
      "toevoeging": "5 D",
      "bag_huisletter": "D",
      "bag_toevoeging": "",
      "woonplaats": "Amsterdam",
      "type_adres": "Hoofdadres",
      "status": "Naamgeving uitgegeven",
      "landelijk_id": "0363200000113678",
      "vbo_status": "Verblijfsobject in gebruik",
      "adresseerbaar_object_id": "0363010000651456",
      "subtype": "verblijfsobject",
      "centroid": [4.899090013250009, 52.36947711230448],
      "subtype_id": "0363010000651456",
      "_display": "Groenburgwal 5D"
    }
  ]
}
